,id,name,type,count,distinct
0,absorbit1,orbitInfo | absOrbit,Integer,1068,1068
1,acquisitionitemi0,acquisitionItemId,Integer,1068,1068
2,alongtrackbaseli0,alongTrackBaseline,Double,1068,1068
3,antennalookdirec3,sat2AcquisitionParameters | antennaLookDirection,Character,1068,
4,antennalookdirec2,sat1AcquisitionParameters | antennaLookDirection,Character,1068,
5,antennareceiveco2,sat1AcquisitionParameters | antennaReceiveConfiguration,Text,1068,
6,antennareceiveco3,sat2AcquisitionParameters | antennaReceiveConfiguration,Text,1068,
7,appliedto0,appliedTo,Text,1068,
8,appliedtoidentif0,appliedToIdentifier,Identifier,1068,1068
9,availability0,availability,Text,1145,
10,averagecoherence0,averageCoherence,Double,1068,1068
11,code0,code,Text,1145,
12,commandedcommonc0,commandedCommonCooperativeMode,Text,1068,
13,cooperativemode0,sat1AcquisitionParameters | cooperativeMode,Text,1068,
14,cooperativemode1,sat2AcquisitionParameters | cooperativeMode,Text,1068,
15,datatakeclass2,sat2AcquisitionParameters | datatakeClass,Text,1068,
16,datatakeclass1,sat1AcquisitionParameters | datatakeClass,Text,1068,
17,eastboundingcoor1,sceneParameter | eastBoundingCoordinate,Double,77,77
18,effectivebaselin0,effectiveBaseline,Double,1068,1068
19,eowebproductid0,eowebProductId,Identifier,1145,1145
20,eowebproducttype0,eowebProductType,Identifier,1145,1145
21,generationsystem0,generationSystem,Text,1068,
22,generationsystem1,generationSystemVersion,Text,1068,
23,generationtime0,generationTime,Date,1068,1068
24,gridgranularity1,sceneParameter | gridGranularity,Text,77,
25,gridgranularity0,gridGranularity,Text,77,
26,heightofambiguit0,heightOfAmbiguity,Double,1068,1068
27,imagingmode4,sat1AcquisitionParameters | imagingMode,Text,1068,
28,imagingmode5,sat2AcquisitionParameters | imagingMode,Text,1068,
29,incidenceanglesc0,incidenceAngleSceneCenter,Double,1068,1068
30,insertiontime0,insertionTime,Date,1145,1145
31,latitude15,sceneParameter | latitude,Double,77,77
32,latitude14,sceneParameter | latitude,Double,77,77
33,latitude17,sceneParameter | latitude,Double,77,77
34,latitude13,sceneParameter | latitude,Double,77,77
35,latitude18,sceneParameter | latitude,Double,77,77
36,latitude20,sceneParameter | latitude,Double,77,77
37,latitude19,sceneParameter | latitude,Double,77,77
38,longitude13,sceneParameter | longitude,Double,77,77
39,longitude19,sceneParameter | longitude,Double,77,77
40,longitude18,sceneParameter | longitude,Double,77,77
41,longitude20,sceneParameter | longitude,Double,77,77
42,longitude15,sceneParameter | longitude,Double,77,77
43,longitude14,sceneParameter | longitude,Double,77,77
44,longitude17,sceneParameter | longitude,Double,77,77
45,mastersatellite0,masterSatellite,Text,1068,
46,masterstarttimeu0,masterStartTimeUTC,Date,1068,1068
47,masterstoptimeut0,masterStopTimeUTC,Date,1068,1068
48,mission0,mission,Text,1145,
49,northboundingcoo1,sceneParameter | northBoundingCoordinate,Double,77,77
50,numberorbitsincy0,orbitInfo | numberOrbitsInCycle,Integer,1068,1068
51,operationstype0,operationsType,Text,1068,
52,orbitcycle1,orbitInfo | orbitCycle,Integer,1068,1068
53,orbitdirection4,orbitInfo | orbitDirection,Text,1068,
54,polarisationchan2,sat1AcquisitionParameters | polarisationChannels,Text,1068,
55,polarisationchan3,sat2AcquisitionParameters | polarisationChannels,Text,1068,
56,polarisationmode3,sat1AcquisitionParameters | polarisationMode,Character,1068,
57,polarisationmode4,sat2AcquisitionParameters | polarisationMode,Character,1068,
58,processingdate1,processorParameter | processingDate,Date,77,77
59,processorbuild0,processorParameter | processorBuild,Text,77,
60,quality0,quality,Text,1145,
61,region0,region,Text,77,
62,reliability0,reliability,Text,1145,
63,relorbit1,orbitInfo | relOrbit,Integer,1068,1068
64,resolution0,resolution,Double,1068,1068
65,resolution3,sceneParameter | resolution,Double,77,77
66,revision0,revision,Text,1145,
67,revisionps0,revisionPS,Text,1068,
68,sat1,sat1,Text,1068,
69,sat1elevationbea0,sat1ElevationBeamConfiguration,Text,1068,
70,sat1operationsty0,sat1OperationsType,Text,1068,
71,sat1rangebandwid0,sat1RangeBandwidthClass,Text,1068,
72,sat2,sat2,Text,1068,
73,sat2elevationbea0,sat2ElevationBeamConfiguration,Text,1068,
74,sat2operationsty0,sat2OperationsType,Text,1068,
75,sat2rangebandwid0,sat2RangeBandwidthClass,Text,1068,
76,satellitemode0,sat1AcquisitionParameters | satelliteMode,Text,1068,
77,satellitemode1,sat2AcquisitionParameters | satelliteMode,Text,1068,
78,scenecolumnoffse0,sceneParameter | sceneColumnOffset,Double,77,77
79,scenelineoffset0,sceneParameter | sceneLineOffset,Double,77,77
80,scenenumber0,sceneNumber,Integer,1068,1068
81,sensor0,sensor,Text,1145,
82,site0,creation | site,Text,77,
83,southboundingcoo1,sceneParameter | southBoundingCoordinate,Double,77,77
84,spatiotempcovera0,spatioTempCoverage,GeoObject,1145,
85,starttime1,temporalCoverage | startTime,Date,1145,1145
86,starttime0,startTime,Date,77,77
87,stoptime0,stopTime,Date,77,77
88,stoptime1,temporalCoverage | stopTime,Date,1145,1145
89,taptakeid0,TAPTakeId,Identifier,1068,
90,tiepointcolumnco0,sceneParameter | tiePointColumnCount,Double,77,77
91,tiepointlinecoun0,sceneParameter | tiePointLineCount,Double,77,77
92,time0,creation | time,Date,77,77
93,westboundingcoor1,sceneParameter | westBoundingCoordinate,Double,77,77
94,geoscene,[ | ,GeoObject,77,
95,geoscenecenter,[ | ,GeoObject,77,
